…
``` r
dm120
```

    ## # A tibble: 120 x 12
    ##        id   a1c   ldl   sbp   bmi   age    sex race.eth  insurance
    ##     <chr> <dbl> <int> <int> <dbl> <int>  <chr>    <chr>      <chr>
    ##  1 dm0001   8.3   108   112 23.68    23   male    White Commercial
    ##  2 dm0002   7.2   119   178 26.56    82 female    White   Medicare
    ##  3 dm0003   6.3    91   162 33.06    69 female    Black   Medicare
    ##  4 dm0004   9.5    85   124 41.30    46 female    White  Uninsured
    ##  5 dm0005   5.7   113   152 37.04    60 female    White Commercial
    ##  6 dm0006  10.6   162   126 43.13    52   male    White   Medicaid
    ##  7 dm0007   7.4   118   119 27.60    50   male Hispanic Commercial
    ##  8 dm0008   7.6    51   120 21.32    57   male    Black   Medicaid
    ##  9 dm0009  11.1   164   132 29.04    48   male Hispanic  Uninsured
    ## 10 dm0010   7.3   110   133 51.06    46 female    Black  Uninsured
    ## # ... with 110 more rows, and 3 more variables: smoking <chr>,
    ## #   eye.exam <chr>, pnvax <chr>
…
